{
  "watch": ["src", "docs", "server.ts","serverManagment.ts","**/*.json", "doc/*.json", "swagger.yaml", ".env", "*.ts"],
  "ext": ".ts,.js,.json,.yaml,.md,.env",
    "ignore": [
      "**/*.test.js",
      "**/*.spec.js",
      ".git",
      "node_modules"
    ],
  "exec": "ts-node ./app.ts"
}
